
歌团002,https://cloud.video.taobao.com//play/u/57349687/p/1/e/6/t/1/239978750464.mp4
歌团003,https://cloud.video.taobao.com//play/u/57349687/p/1/e/6/t/1/239858729476.mp4
歌团004,https://cloud.video.taobao.com//play/u/57349687/p/1/e/6/t/1/239755956819.mp4
歌团005,https://cloud.video.taobao.com//play/u/57349687/p/1/e/6/t/1/239987758613.mp4
歌团006,https://cloud.video.taobao.com//play/u/57349687/p/1/e/6/t/1/239880949246.mp4
歌团007,https://cloud.video.taobao.com//play/u/57349687/p/1/e/6/t/1/239903717006.mp4
歌团008,https://cloud.video.taobao.com//play/u/57349687/p/1/e/6/t/1/239903321355.mp4
歌团009,https://cloud.video.taobao.com//play/u/57349687/p/1/e/6/t/1/239799872402.mp4
歌团010,https://cloud.video.taobao.com//play/u/57349687/p/1/e/6/t/1/239799088974.mp4
歌团011,https://cloud.video.taobao.com//play/u/57349687/p/1/e/6/t/1/240024786285.mp4
歌团012,https://cloud.video.taobao.com//play/u/57349687/p/1/e/6/t/1/240142715042.mp4
歌团013,https://cloud.video.taobao.com//play/u/57349687/p/1/e/6/t/1/240025046562.mp4
歌团014,https://cloud.video.taobao.com//play/u/57349687/p/1/e/6/t/1/240145171654.mp4
歌团015,https://cloud.video.taobao.com//play/u/57349687/p/1/e/6/t/1/240147051191.mp4
歌团016,https://cloud.video.taobao.com//play/u/57349687/p/1/e/6/t/1/239805200933.mp4
歌团017,https://cloud.video.taobao.com//play/u/57349687/p/1/e/6/t/1/239910253332.mp4
歌团018,https://cloud.video.taobao.com//play/u/57349687/p/1/e/6/t/1/239806164759.mp4
歌团019,https://cloud.video.taobao.com//play/u/57349687/p/1/e/6/t/1/239807872136.mp4
歌团020,https://cloud.video.taobao.com//play/u/57349687/p/1/e/6/t/1/240032526123.mp4
歌团021,https://cloud.video.taobao.com//play/u/57349687/p/1/e/6/t/1/239808028600.mp4
歌团022,https://cloud.video.taobao.com//play/u/57349687/p/1/e/6/t/1/240031614983.mp4
歌团023,https://cloud.video.taobao.com//play/u/57349687/p/1/e/6/t/1/240150331617.mp4
歌团024,https://cloud.video.taobao.com//play/u/57349687/p/1/e/6/t/1/239809100782.mp4
歌团025,https://cloud.video.taobao.com//play/u/57349687/p/1/e/6/t/1/240151167718.mp4
歌团026,https://cloud.video.taobao.com//play/u/57349687/p/1/e/6/t/1/240033362815.mp4
歌团027,https://cloud.video.taobao.com//play/u/57349687/p/1/e/6/t/1/240151167938.mp4
歌团028,https://cloud.video.taobao.com//play/u/57349687/p/1/e/6/t/1/240035466345.mp4
歌团029,https://cloud.video.taobao.com//play/u/57349687/p/1/e/6/t/1/239811800375.mp4
歌团030,https://cloud.video.taobao.com//play/u/57349687/p/1/e/6/t/1/239916285148.mp4
歌团031,https://cloud.video.taobao.com//play/u/57349687/p/1/e/6/t/1/239927589941.mp4
歌团032,https://cloud.video.taobao.com//play/u/57349687/p/1/e/6/t/1/239931661209.mp4
歌团033,https://cloud.video.taobao.com//play/u/57349687/p/1/e/6/t/1/240171579858.mp4
歌团034,https://cloud.video.taobao.com//play/u/57349687/p/1/e/6/t/1/239831144046.mp4
歌团035,https://cloud.video.taobao.com//play/u/57349687/p/1/e/6/t/1/240056530470.mp4
歌团036,https://cloud.video.taobao.com//play/u/57349687/p/1/e/6/t/1/239832040344.mp4
歌团037,https://cloud.video.taobao.com//play/u/57349687/p/1/e/6/t/1/240173879894.mp4
歌团038,https://cloud.video.taobao.com//play/u/57349687/p/1/e/6/t/1/240057078179.mp4
歌团039,https://cloud.video.taobao.com//play/u/57349687/p/1/e/6/t/1/239936685999.mp4
歌团040,https://cloud.video.taobao.com//play/u/57349687/p/1/e/6/t/1/240059018784.mp4
歌团041,https://cloud.video.taobao.com//play/u/57349687/p/1/e/6/t/1/239834324813.mp4
歌团042,https://cloud.video.taobao.com//play/u/57349687/p/1/e/6/t/1/239834716201.mp4
歌团043,https://cloud.video.taobao.com//play/u/57349687/p/1/e/6/t/1/239837532125.mp4
歌团044,https://cloud.video.taobao.com//play/u/57349687/p/1/e/6/t/1/240179867562.mp4
歌团045,https://cloud.video.taobao.com//play/u/57349687/p/1/e/6/t/1/240063650207.mp4
歌团046,https://cloud.video.taobao.com//play/u/57349687/p/1/e/6/t/1/240181243061.mp4
歌团047,https://cloud.video.taobao.com//play/u/57349687/p/1/e/6/t/1/240181363115.mp4
歌团048,https://cloud.video.taobao.com//play/u/57349687/p/1/e/6/t/1/239944465251.mp4
歌团049,https://cloud.video.taobao.com//play/u/57349687/p/1/e/6/t/1/240065122134.mp4
歌团050,https://cloud.video.taobao.com//play/u/57349687/p/1/e/6/t/1/239840536452.mp4
歌团051,https://cloud.video.taobao.com//play/u/57349687/p/1/e/6/t/1/240065838644.mp4
歌团052,https://cloud.video.taobao.com//play/u/57349687/p/1/e/6/t/1/239945877111.mp4
歌团053,https://cloud.video.taobao.com//play/u/57349687/p/1/e/6/t/1/240184339138.mp4
歌团054,https://cloud.video.taobao.com//play/u/57349687/p/1/e/6/t/1/239842640589.mp4
歌团055,https://cloud.video.taobao.com//play/u/57349687/p/1/e/6/t/1/240186067562.mp4
歌团056,https://cloud.video.taobao.com//play/u/57349687/p/1/e/6/t/1/240187071401.mp4
歌团057,https://cloud.video.taobao.com//play/u/57349687/p/1/e/6/t/1/240069974546.mp4
歌团058,https://cloud.video.taobao.com//play/u/57349687/p/1/e/6/t/1/240070346911.mp4
歌团059,https://cloud.video.taobao.com//play/u/57349687/p/1/e/6/t/1/240070818783.mp4
歌团060,https://cloud.video.taobao.com//play/u/57349687/p/1/e/6/t/1/239846692034.mp4
歌团061,https://cloud.video.taobao.com//play/u/57349687/p/1/e/6/t/1/239951329234.mp4
歌团062,https://cloud.video.taobao.com//play/u/57349687/p/1/e/6/t/1/240191295627.mp4
歌团063,https://cloud.video.taobao.com//play/u/57349687/p/1/e/6/t/1/240026585459.mp4
歌团064,https://cloud.video.taobao.com//play/u/57349687/p/1/e/6/t/1/240192067467.mp4
歌团065,https://cloud.video.taobao.com//play/u/57349687/p/1/e/6/t/1/239911732892.mp4
歌团066,https://cloud.video.taobao.com//play/u/57349687/p/1/e/6/t/1/240196491782.mp4
歌团067,https://cloud.video.taobao.com//play/u/57349687/p/1/e/6/t/1/239960909980.mp4
歌团068,https://cloud.video.taobao.com//play/u/57349687/p/1/e/6/t/1/240017737344.mp4
歌团069,https://cloud.video.taobao.com//play/u/57349687/p/1/e/6/t/1/240202339353.mp4
歌团070,https://cloud.video.taobao.com//play/u/57349687/p/1/e/6/t/1/240203243765.mp4
歌团071,https://cloud.video.taobao.com//play/u/57349687/p/1/e/6/t/1/240205555546.mp4
歌团072,https://cloud.video.taobao.com//play/u/57349687/p/1/e/6/t/1/239983417489.mp4
歌团074,https://cloud.video.taobao.com//play/u/57349687/p/1/e/6/t/1/240221687198.mp4
歌团075,https://cloud.video.taobao.com//play/u/57349687/p/1/e/6/t/1/240222023079.mp4
歌团076,https://cloud.video.taobao.com//play/u/57349687/p/1/e/6/t/1/240107150280.mp4
歌团077,https://cloud.video.taobao.com//play/u/57349687/p/1/e/6/t/1/240224523227.mp4
歌团078,https://cloud.video.taobao.com//play/u/57349687/p/1/e/6/t/1/239987569147.mp4
歌团079,https://cloud.video.taobao.com//play/u/57349687/p/1/e/6/t/1/240225803033.mp4
歌团080,https://cloud.video.taobao.com//play/u/57349687/p/1/e/6/t/1/239989445779.mp4
歌团081,https://cloud.video.taobao.com//play/u/57349687/p/1/e/6/t/1/240229579224.mp4
歌团082,https://cloud.video.taobao.com//play/u/57349687/p/1/e/6/t/1/239993533054.mp4
歌团083,https://cloud.video.taobao.com//play/u/57349687/p/1/e/6/t/1/239994225085.mp4
歌团084,https://cloud.video.taobao.com//play/u/57349687/p/1/e/6/t/1/239994741288.mp4
歌团085,https://cloud.video.taobao.com//play/u/57349687/p/1/e/6/t/1/239995197198.mp4
歌团086,https://cloud.video.taobao.com//play/u/57349687/p/1/e/6/t/1/240232939168.mp4
歌团087,https://cloud.video.taobao.com//play/u/57349687/p/1/e/6/t/1/239890536417.mp4
歌团088,https://cloud.video.taobao.com//play/u/57349687/p/1/e/6/t/1/239890568711.mp4
歌团089,https://cloud.video.taobao.com//play/u/57349687/p/1/e/6/t/1/240233783820.mp4
歌团090,https://cloud.video.taobao.com//play/u/57349687/p/1/e/6/t/1/239894180409.mp4
歌团092,https://cloud.video.taobao.com//play/u/57349687/p/1/e/6/t/1/239895496483.mp4
歌团093,https://cloud.video.taobao.com//play/u/57349687/p/1/e/6/t/1/240119938989.mp4
歌团094,https://cloud.video.taobao.com//play/u/57349687/p/1/e/6/t/1/240002397273.mp4
歌团095,https://cloud.video.taobao.com//play/u/57349687/p/1/e/6/t/1/240241527208.mp4
歌团096,https://cloud.video.taobao.com//play/u/57349687/p/1/e/6/t/1/239899840062.mp4
歌团097,https://cloud.video.taobao.com//play/u/57349687/p/1/e/6/t/1/240243499351.mp4
歌团098,https://cloud.video.taobao.com//play/u/57349687/p/1/e/6/t/1/240127638122.mp4
歌团099,https://cloud.video.taobao.com//play/u/57349687/p/1/e/6/t/1/240030505796.mp4
歌团100,https://cloud.video.taobao.com//play/u/57349687/p/1/e/6/t/1/240245283772.mp4
歌团101,https://cloud.video.taobao.com//play/u/57349687/p/1/e/6/t/1/240247623420.mp4
歌团102,https://cloud.video.taobao.com//play/u/57349687/p/1/e/6/t/1/240043672242.mp4
歌团103,https://cloud.video.taobao.com//play/u/57349687/p/1/e/6/t/1/240339124000.mp4
歌团104,https://cloud.video.taobao.com//play/u/57349687/p/1/e/6/t/1/240221702622.mp4
歌团105,https://cloud.video.taobao.com//play/u/57349687/p/1/e/6/t/1/239993732827.mp4
歌团106,https://cloud.video.taobao.com//play/u/57349687/p/1/e/6/t/1/239994460907.mp4
歌团107,https://cloud.video.taobao.com//play/u/57349687/p/1/e/6/t/1/240340899550.mp4
歌团108,https://cloud.video.taobao.com//play/u/57349687/p/1/e/6/t/1/239995692215.mp4
歌团109,https://cloud.video.taobao.com//play/u/57349687/p/1/e/6/t/1/240341971789.mp4
歌团110,https://cloud.video.taobao.com//play/u/57349687/p/1/e/6/t/1/239996664565.mp4
歌团111,https://cloud.video.taobao.com//play/u/57349687/p/1/e/6/t/1/240342839842.mp4
歌团112,https://cloud.video.taobao.com//play/u/57349687/p/1/e/6/t/1/240225254466.mp4
歌团113,https://cloud.video.taobao.com//play/u/57349687/p/1/e/6/t/1/240225226897.mp4
歌团114,https://cloud.video.taobao.com//play/u/57349687/p/1/e/6/t/1/239998000351.mp4
歌团115,https://cloud.video.taobao.com//play/u/57349687/p/1/e/6/t/1/240105989528.mp4
歌团116,https://cloud.video.taobao.com//play/u/57349687/p/1/e/6/t/1/239998340711.mp4
歌团117,https://cloud.video.taobao.com//play/u/57349687/p/1/e/6/t/1/240106477140.mp4
歌团118,https://cloud.video.taobao.com//play/u/57349687/p/1/e/6/t/1/240107389699.mp4
歌团119,https://cloud.video.taobao.com//play/u/57349687/p/1/e/6/t/1/240345787129.mp4
歌团120,https://cloud.video.taobao.com//play/u/57349687/p/1/e/6/t/1/240227966801.mp4
歌团121,https://cloud.video.taobao.com//play/u/57349687/p/1/e/6/t/1/240228462625.mp4
歌团122,https://cloud.video.taobao.com//play/u/57349687/p/1/e/6/t/1/240108721427.mp4
歌团123,https://cloud.video.taobao.com//play/u/57349687/p/1/e/6/t/1/240001176191.mp4
歌团125,https://cloud.video.taobao.com//play/u/57349687/p/1/e/6/t/1/240001228776.mp4
歌团126,https://cloud.video.taobao.com//play/u/57349687/p/1/e/6/t/1/240109533631.mp4
歌团127,https://cloud.video.taobao.com//play/u/57349687/p/1/e/6/t/1/240347663598.mp4
歌团128,https://cloud.video.taobao.com//play/u/57349687/p/1/e/6/t/1/240001932458.mp4
歌团129,https://cloud.video.taobao.com//play/u/57349687/p/1/e/6/t/1/240002044738.mp4
歌团130,https://cloud.video.taobao.com//play/u/57349687/p/1/e/6/t/1/240111085001.mp4
歌团131,https://cloud.video.taobao.com//play/u/57349687/p/1/e/6/t/1/240350575186.mp4
歌团132,https://cloud.video.taobao.com//play/u/57349687/p/1/e/6/t/1/240350771160.mp4
歌团133,https://cloud.video.taobao.com//play/u/57349687/p/1/e/6/t/1/240113261859.mp4
歌团134,https://cloud.video.taobao.com//play/u/57349687/p/1/e/6/t/1/240352039996.mp4
歌团135,https://cloud.video.taobao.com//play/u/57349687/p/1/e/6/t/1/240236014123.mp4
歌团136,https://cloud.video.taobao.com//play/u/57349687/p/1/e/6/t/1/240008036293.mp4
歌团137,https://cloud.video.taobao.com//play/u/57349687/p/1/e/6/t/1/240354863286.mp4
歌团138,https://cloud.video.taobao.com//play/u/57349687/p/1/e/6/t/1/240008780109.mp4
歌团139,https://cloud.video.taobao.com//play/u/57349687/p/1/e/6/t/1/240009608741.mp4
歌团140,https://cloud.video.taobao.com//play/u/57349687/p/1/e/6/t/1/240379515679.mp4
歌团141,https://cloud.video.taobao.com//play/u/57349687/p/1/e/6/t/1/240262842385.mp4
歌团142,https://cloud.video.taobao.com//play/u/57349687/p/1/e/6/t/1/240264262344.mp4
歌团143,https://cloud.video.taobao.com//play/u/57349687/p/1/e/6/t/1/240384227055.mp4
歌团145,https://cloud.video.taobao.com//play/u/57349687/p/1/e/6/t/1/240267170778.mp4
歌团146,https://cloud.video.taobao.com//play/u/57349687/p/1/e/6/t/1/240386743317.mp4
歌团147,https://cloud.video.taobao.com//play/u/57349687/p/1/e/6/t/1/240268654616.mp4
歌团148,https://cloud.video.taobao.com//play/u/57349687/p/1/e/6/t/1/240387107547.mp4
歌团149,https://cloud.video.taobao.com//play/u/57349687/p/1/e/6/t/1/240150573492.mp4
歌团150,https://cloud.video.taobao.com//play/u/57349687/p/1/e/6/t/1/240388683474.mp4
歌团151,https://cloud.video.taobao.com//play/u/57349687/p/1/e/6/t/1/240270774376.mp4
歌团152,https://cloud.video.taobao.com//play/u/57349687/p/1/e/6/t/1/240151273206.mp4
歌团153,https://cloud.video.taobao.com//play/u/57349687/p/1/e/6/t/1/240389031565.mp4
太妍02,https://cloud.video.taobao.com//play/u/57349687/p/1/e/6/t/1/240167997205.mp4
太妍03,https://cloud.video.taobao.com//play/u/57349687/p/1/e/6/t/1/240059400880.mp4
太妍04,https://cloud.video.taobao.com//play/u/57349687/p/1/e/6/t/1/240407847242.mp4
太妍05,https://cloud.video.taobao.com//play/u/57349687/p/1/e/6/t/1/240062596020.mp4
太妍06,https://cloud.video.taobao.com//play/u/57349687/p/1/e/6/t/1/240170661907.mp4
太妍07,https://cloud.video.taobao.com//play/u/57349687/p/1/e/6/t/1/240411259014.mp4
太妍08,https://cloud.video.taobao.com//play/u/57349687/p/1/e/6/t/1/240174309994.mp4
太妍09,https://cloud.video.taobao.com//play/u/57349687/p/1/e/6/t/1/240175225325.mp4
太妍10,https://cloud.video.taobao.com//play/u/57349687/p/1/e/6/t/1/240066736888.mp4
太妍11,https://cloud.video.taobao.com//play/u/57349687/p/1/e/6/t/1/240175161903.mp4
太妍12,https://cloud.video.taobao.com//play/u/57349687/p/1/e/6/t/1/240295526170.mp4
太妍13,https://cloud.video.taobao.com//play/u/57349687/p/1/e/6/t/1/240295818399.mp4
太妍14,https://cloud.video.taobao.com//play/u/57349687/p/1/e/6/t/1/240177321736.mp4
太妍15,https://cloud.video.taobao.com//play/u/57349687/p/1/e/6/t/1/240177941288.mp4
太妍16,https://cloud.video.taobao.com//play/u/57349687/p/1/e/6/t/1/240070652257.mp4
太妍17,https://cloud.video.taobao.com//play/u/57349687/p/1/e/6/t/1/240298266546.mp4
太妍18,https://cloud.video.taobao.com//play/u/57349687/p/1/e/6/t/1/240070884570.mp4
太妍19,https://cloud.video.taobao.com//play/u/57349687/p/1/e/6/t/1/240298694512.mp4
太妍20,https://cloud.video.taobao.com//play/u/57349687/p/1/e/6/t/1/240418087243.mp4
太妍21,https://cloud.video.taobao.com//play/u/57349687/p/1/e/6/t/1/240299394846.mp4
太妍22,https://cloud.video.taobao.com//play/u/57349687/p/1/e/6/t/1/240181409471.mp4
太妍23,https://cloud.video.taobao.com//play/u/57349687/p/1/e/6/t/1/240182993056.mp4
太妍24,https://cloud.video.taobao.com//play/u/57349687/p/1/e/6/t/1/240301854532.mp4
太妍25,https://cloud.video.taobao.com//play/u/57349687/p/1/e/6/t/1/240075164377.mp4
太妍26,https://cloud.video.taobao.com//play/u/57349687/p/1/e/6/t/1/240349762400.mp4
太妍27,https://cloud.video.taobao.com//play/u/57349687/p/1/e/6/t/1/240121912724.mp4
太妍28,https://cloud.video.taobao.com//play/u/57349687/p/1/e/6/t/1/240126480392.mp4
太妍29,https://cloud.video.taobao.com//play/u/57349687/p/1/e/6/t/1/240355262537.mp4
太妍30,https://cloud.video.taobao.com//play/u/57349687/p/1/e/6/t/1/240355734488.mp4
太妍31,https://cloud.video.taobao.com//play/u/57349687/p/1/e/6/t/1/240237453313.mp4
太妍32,https://cloud.video.taobao.com//play/u/57349687/p/1/e/6/t/1/240130092025.mp4
太妍33,https://cloud.video.taobao.com//play/u/57349687/p/1/e/6/t/1/240478207039.mp4
太妍34,https://cloud.video.taobao.com//play/u/57349687/p/1/e/6/t/1/240361330093.mp4
太妍35,https://cloud.video.taobao.com//play/u/57349687/p/1/e/6/t/1/240139316317.mp4
太妍36,https://cloud.video.taobao.com//play/u/57349687/p/1/e/6/t/1/240248465975.mp4
太妍37,https://cloud.video.taobao.com//play/u/57349687/p/1/e/6/t/1/240139720035.mp4
太妍38,https://cloud.video.taobao.com//play/u/57349687/p/1/e/6/t/1/240368550193.mp4
太妍40,https://cloud.video.taobao.com//play/u/57349687/p/1/e/6/t/1/240370230905.mp4
太妍41,https://cloud.video.taobao.com//play/u/57349687/p/1/e/6/t/1/240160716008.mp4