{
  "cookie": "SESSDATA=01c79709%2C1711618905%2C244c3%2A91CjA9UUnRb_kJg03J5FqUbin76yMY90o1-ckJsM1ItQH21ns4hgcS6Le6oMR3SKtC18QSVmxSbGRhN3cyS3NReERsOHRfYVlhTWJKZjZyTF9wUWJXbjNfaF9qWklFMFpoeVg1ZUhFb0Q0MGFiN3FYd1N3UEFEY1oxX29IdmFSRVVLamcybGhhSkJnIIEC; bili_jct=e9d6e9df733afde2a03693d63a4e77dc; DedeUserID=186957646; DedeUserID__ckMd5=4f717c8832ee1e62; sid=elhiqom1",
  "classes": [
    {
      "type_name": "美食制作",
      "type_id": "美食制作"
    },
    {
      "type_name": "美食侦探",
      "type_id": "美食侦探"
    },    {
      "type_name": "美食测评",
      "type_id": "美食测评"
    },    {
      "type_name": "田园美食",
      "type_id": "田园美食"
    },    {
      "type_name": "美食记录",
      "type_id": "美食记录"
    }





  ],
  "filter": {
    "美食制作": [
      {
        "key": "duration",
        "name": "时长",
        "value": [
          {
            "n": "全部",
            "v": "0"
          },
          {
            "n": "60分钟以上",
            "v": "4"
          },
          {
            "n": "30~60分钟",
            "v": "3"
          },
          {
            "n": "10~30分钟",
            "v": "2"
          },
          {
            "n": "10分钟以下",
            "v": "1"
          }
        ]
      }
    ],
     "美食侦探": [
      {
        "key": "duration",
        "name": "时长",
        "value": [
          {
            "n": "全部",
            "v": "0"
          },
          {
            "n": "60分钟以上",
            "v": "4"
          },
          {
            "n": "30~60分钟",
            "v": "3"
          },
          {
            "n": "10~30分钟",
            "v": "2"
          },
          {
            "n": "10分钟以下",
            "v": "1"
          }
        ]
      }
    ],
     "美食测评": [
      {
        "key": "duration",
        "name": "时长",
        "value": [
          {
            "n": "全部",
            "v": "0"
          },
          {
            "n": "60分钟以上",
            "v": "4"
          },
          {
            "n": "30~60分钟",
            "v": "3"
          },
          {
            "n": "10~30分钟",
            "v": "2"
          },
          {
            "n": "10分钟以下",
            "v": "1"
          }
        ]
      }
    ],
     "田园美食": [
      {
        "key": "duration",
        "name": "时长",
        "value": [
          {
            "n": "全部",
            "v": "0"
          },
          {
            "n": "60分钟以上",
            "v": "4"
          },
          {
            "n": "30~60分钟",
            "v": "3"
          },
          {
            "n": "10~30分钟",
            "v": "2"
          }
      
        ]
      }
    ],
     "美食记录": [
      {
        "key": "duration",
        "name": "时长",
        "value": [
          {
            "n": "全部",
            "v": "0"
          },
          {
            "n": "60分钟以上",
            "v": "4"
          },
          {
            "n": "30~60分钟",
            "v": "3"
          },
          {
            "n": "10~30分钟",
            "v": "2"
          },
          {
            "n": "10分钟以下",
            "v": "1"
          }
        ]
      }
    ]


  }
}