{
    "站名": "420影视",
    "作者": "cally",
    "首页": "电影$1",
    "请求头": "User-Agent$Mozilla/5.0(Linux；； Android 13；； PGP110 Build/TP1A.220905.001；； wv) AppleWebKit/537.36 (KHTML, like Gecko) Version/4.0 Chrome/103.0.5060.129 Mobile Safari/537.36&&Cookie@PHPSESSID=7n6vsi0brmet7ssoc20fqodrk2；； Hm_lvt_8474b59065b02c2edd496065e05fc310=1715784040；； Hm_lpvt_8474b59065b02c2edd496065e05fc310=1715784041&&Accept@text/html,application/xhtml+xml,application/xml；；q=0.9,image/avif,image/webp,image/apng,*/*；；q=0.8,application/signed-exchange；；v=b3；；q=0.7&&Accept-Language@zh-CN,zh；；q=0.9",
    "分类url": "https://www.dapian1234.com/sort/{cateId}/select---{area}---{area}--{catePg}.html[https://www.dapian1234.com/sort/{cateId}/{catePg}.html]",
    "分类": "电影&剧集&动漫",
    "分类值": "1&15&3",
    "数组": "u-movie\">&&\"meta\">",
    "图片": "src=\"&&\"",
    "标题": "title=\"&&\"",
    "副标题": "zhuangtai\">&&</div",
    "链接": "href=\"&&\"",
    "影片类型": "类型:</span>&&</li",
    "影片地区": "地区:</span>&&</li>",
    "影片状态": "状态:</span>&&</li",
    "简介": "孔哥提醒您：请勿相信影片中的广告，以免上当受骗！+剧情简介&&</div>",
    "搜索副标题": "zhuangtai\">&&</div",
    "线路数组": "<h3&&</h3",
    "线路标题": "💖孔哥接口💖+strong>&&<",
    "播放数组": "playlist\">&&</div>",
//  "列表二次截取": "",
    "播放列表": "<a&&</a",
    "播放标题": "title=\"&&\"",
    "播放链接": "href=\"&&\"",
    "主页url": "https://www.dapian1234.com"
}