    {
    
    "作者":"孔哥TV",
    
    "站名":"hdmoli",
    
    "主页url":"https://www.hdmoli.pro/",
    

    
    "影片类型":"分类：&&主演",
    
    "导演":"导演：</span>&&</p>",
    
    "主演":"主演：</span>&&</p>",
    
    "简介":"【孔哥TV】提醒您请勿相信影片中的广告，以免上当受骗！+<b>&&</p>",

    
    "数组":"myui-vodlist__thumb lazyload&&</a>",
    
    "标题":"title=\"&&\"",
    
    "副标题":"pic-tag pic-tag-top\">&&</span>",
    
    "图片":"data-original=\"&&\"",
    
    "链接":"href=\"&&\"",
    
    "搜索url":"https://www.hdmoli.pro/search.php?page={pg}&searchword={wd}",
    
    "搜索数组":"myui-vodlist__thumb lazyload&&</a>",
    
    "搜索标题":"title=\"&&\"",
    
    "搜索副标题":"pic-tag pic-tag-top\">&&</span>",
    
    "搜索图片":"data-original=\"&&\"",
    
    "搜索链接":"href=\"&&\"",
    
    "搜索模式":"1",
    

    
    "线路数组":"</a><h3&&/h3>",
    
    "线路标题":"🌸孔哥TV接口🌸+tab\">&&<",

    
  

    "播放数组":"<ul class=\"myui-content__list sort-list clearfix&&</ul>",




    "播放标题":">&&<",
    
    "播放列表":"<a&&/a>",

     "播放链接":"href=\"&&\"",
    
    "分类url":"https://www.hdmoli.pro/mlist/index{cateId}-{catePg}.html", 


  "分类":"电影$1#剧集$2#动画$41"}
 




